<?xml version="1.0" encoding="UTF-8"?>
<svg width="447px" height="208px" viewBox="0 0 447 208" version="1.1" xmlns="http://www.w3.org/2000/svg" xmlns:xlink="http://www.w3.org/1999/xlink">
    <!-- Generator: Sketch 53 (72520) - https://sketchapp.com -->
    <title>Just commit giveaway twitter images svg</title>
    <desc>Created with Sketch.</desc>
    <g id="Page-1" stroke="none" stroke-width="1" fill="none" fill-rule="evenodd">
        <g id="Desktop-HD-Copy-4" transform="translate(-884.000000, -411.000000)">
            <g id="Group" transform="translate(884.000000, 411.000000)">
                <g id="twitter" transform="translate(76.000000, 7.000000)">
                    <rect id="Rectangle" fill="#FFFFFF" x="0" y="0" width="72" height="54" rx="27"></rect>
                    <polyline id="Path-2" fill="#FFFFFF" points="43 49 59 65 59 49"></polyline>
                    <g id="gitlab-logo" transform="translate(18.000000, 11.000000)" fill-rule="nonzero">
                        <path d="M35.8092,18.8352 L33.7992,12.6792 L29.823,0.468 C29.619,-0.156 28.7304,-0.156 28.5192,0.468 L24.543,12.6714 L11.331,12.6714 L7.3548,0.468 C7.1508,-0.156 6.2622,-0.156 6.051,0.468 L2.0814,12.6714 L0.0713999997,18.8346 C-0.1104,19.3938 0.0863999997,20.0106 0.567,20.3592 L17.9376,32.94 L35.3082,20.3592 C35.7888,20.0106 35.9928,19.3938 35.8104,18.8346" id="Path" fill="#FC6D26"></path>
                        <polygon id="Path" fill="#E24329" points="17.9406 32.9322 24.5466 12.672 11.3346 12.672"></polygon>
                        <polygon id="Path" fill="#FC6D26" points="17.9358 32.9322 11.3298 12.672 2.0796 12.672"></polygon>
                        <path d="M2.0772,12.678 L0.0672,18.834 C-0.1146,19.3926 0.0822,20.01 0.5628,20.3586 L17.9334,32.9394 L2.0778,12.678" id="Path" fill="#FCA326"></path>
                        <path d="M2.0796,12.678 L11.337,12.678 L7.353,0.4746 C7.149,-0.15 6.2604,-0.15 6.0492,0.4746 L2.0796,12.678" id="Path" fill="#E24329"></path>
                        <polygon id="Path" fill="#FC6D26" points="17.9406 32.9322 24.5466 12.672 33.804 12.672"></polygon>
                        <path d="M33.798,12.678 L35.808,18.834 C35.9898,19.3926 35.7936,20.01 35.3124,20.3586 L17.9418,32.9322 L33.7974,12.678" id="Path" fill="#FCA326"></path>
                        <path d="M33.804,12.678 L24.5472,12.678 L28.5234,0.4746 C28.7274,-0.15 29.616,-0.15 29.8272,0.4746 L33.804,12.678" id="Path" fill="#E24329"></path>
                    </g>
                </g>
                <g id="twitter-copy-2" opacity="0.14969308" transform="translate(0.000000, 107.000000)" fill="#FFFFFF">
                    <rect id="Rectangle" x="0" y="0" width="58" height="43.2" rx="21.6"></rect>
                    <polyline id="Path-2" points="34.6388889 39.2 47.5277778 52 47.5277778 39.2"></polyline>
                </g>
                <g id="twitter-copy-3" opacity="0.14969308" transform="translate(251.000000, 21.000000) scale(-1, 1) translate(-251.000000, -21.000000) translate(228.000000, 0.000000)" fill="#FFFFFF">
                    <rect id="Rectangle" x="0" y="0" width="46" height="34.7142857" rx="17.3571429"></rect>
                    <polyline id="Path-2" points="27.4722222 31.7142857 37.6944444 42 37.6944444 31.7142857"></polyline>
                </g>
                <g id="twitter-copy" transform="translate(280.000000, 81.000000)">
                    <rect id="Rectangle" fill="#FFFFFF" x="0" y="0" width="167" height="54" rx="27"></rect>
                    <polyline id="Path-2" fill="#FFFFFF" transform="translate(28.000000, 60.000000) scale(-1, 1) translate(-28.000000, -60.000000) " points="20 52 36 68 36 52"></polyline>
                    <text id="#justcommit" font-family="SourceSansPro-Bold, Source Sans Pro" font-size="22" font-weight="bold" fill="#1C1535">
                        <tspan x="21.955" y="35">#justcommit</tspan>
                    </text>
                </g>
                <path d="M227,119.050901 C222.298981,122.401206 217.093984,124.963651 211.585455,126.639557 C205.529401,119.604118 195.77018,117.136945 187.1484,120.461763 C178.52662,123.786582 172.876292,132.196144 173,141.519275 L173,146.47918 C155.477809,146.938232 138.891761,138.503506 128.818182,124.010807 C128.818182,124.010807 109.181818,168.649959 153.363636,188.489583 C143.253499,195.423364 131.209679,198.900075 119,198.409394 C163.181818,223.208924 217.181818,198.409394 217.181818,141.370477 C217.177297,139.988914 217.045824,138.610758 216.789091,137.253756 C221.799325,132.261576 225.334971,125.958626 227,119.050901 Z" id="Path" fill="#4099FF" fill-rule="nonzero"></path>
            </g>
        </g>
    </g>
</svg>
